<?xml version="1.0" encoding="UTF-8" standalone="no"?>
<svg width="24px" height="28px" viewBox="0 0 24 28" version="1.1" xmlns="http://www.w3.org/2000/svg" xmlns:xlink="http://www.w3.org/1999/xlink">
    <!-- Generator: Sketch 3.6.1 (26313) - http://www.bohemiancoding.com/sketch -->
    <title>Page 1</title>
    <desc>Created with Sketch.</desc>
    <defs>
        <path id="path-1" d="M0.000199999999,28 L23.428,28 L23.428,0.2864 L0.000199999999,0.2864 L0.000199999999,28 L0.000199999999,28 Z"></path>
    </defs>
    <g id="Page-1" stroke="none" stroke-width="1" fill="none" fill-rule="evenodd">
        <g id="Upload-panels-a-Design" transform="translate(-425.000000, -466.000000)">
            <g id="Page-1" transform="translate(425.000000, 465.000000)">
                <g id="Group-3" transform="translate(0.000000, 0.713900)">
                    <mask id="mask-2" fill="white">
                        <use xlink:href="#path-1"></use>
                    </mask>
                    <g id="Clip-2"></g>
                    <path d="M22.4282,8.8574 L15.4642,8.8574 C15.2822,8.8574 15.1572,8.8064 15.0322,8.6814 C14.9072,8.5564 14.8572,8.4314 14.8572,8.2504 L14.8572,1.2864 C14.8572,0.7334 14.4092,0.2864 13.8572,0.2864 L1.0002,0.2864 C0.4482,0.2864 0.000199999999,0.7334 0.000199999999,1.2864 L0.000199999999,27.0004 C0.000199999999,27.5524 0.4482,28.0004 1.0002,28.0004 L22.4282,28.0004 C22.9812,28.0004 23.4282,27.5524 23.4282,27.0004 L23.4282,9.8574 C23.4282,9.3054 22.9812,8.8574 22.4282,8.8574" id="Fill-1" fill="#000000" mask="url(#mask-2)"></path>
                </g>
                <path d="M17.0923,2.0645 C16.9583,1.9305 16.7303,1.8075 16.4053,1.6965 L16.4053,7.9915 L22.7003,7.9915 C22.5893,7.6675 22.4663,7.4385 22.3323,7.3045 L17.0923,2.0645 Z" id="Fill-4" fill="#000000"></path>
                <path d="M6.0391,23.7969 L6.0391,25.5709 L10.7431,25.5709 L10.7431,23.7969 L9.4871,23.7969 L11.2121,21.1019 C11.2681,21.0239 11.3231,20.9319 11.3791,20.8249 C11.4351,20.7199 11.4771,20.6439 11.5051,20.5999 C11.5331,20.5549 11.5521,20.5319 11.5631,20.5319 L11.5971,20.5319 C11.6081,20.5769 11.6361,20.6329 11.6811,20.6989 C11.7031,20.7439 11.7281,20.7859 11.7561,20.8249 C11.7841,20.8639 11.8171,20.9089 11.8561,20.9589 C11.8951,21.0099 11.9321,21.0569 11.9651,21.1019 L13.7561,23.7969 L12.4841,23.7969 L12.4841,25.5709 L17.3561,25.5709 L17.3561,23.7969 L16.2171,23.7969 L13.0031,19.2269 L16.2671,14.5059 L17.3891,14.5059 L17.3891,12.7139 L12.7191,12.7139 L12.7191,14.5059 L13.9571,14.5059 L12.2331,17.1669 C12.1881,17.2449 12.1331,17.3379 12.0651,17.4429 C11.9981,17.5499 11.9481,17.6249 11.9151,17.6699 L11.8811,17.7199 L11.8481,17.7199 C11.8371,17.6749 11.8091,17.6189 11.7641,17.5529 C11.6971,17.4299 11.6021,17.3009 11.4791,17.1669 L9.7051,14.5059 L10.9771,14.5059 L10.9771,12.7139 L6.1221,12.7139 L6.1221,14.5059 L7.2611,14.5059 L10.4251,19.0589 L7.1771,23.7969 L6.0391,23.7969 Z" id="Fill-6" fill="#FEFEFE"></path>
            </g>
        </g>
    </g>
</svg>