<?xml version="1.0" encoding="UTF-8" standalone="no"?>
<svg width="14px" height="12px" viewBox="0 0 14 12" version="1.1" xmlns="http://www.w3.org/2000/svg" xmlns:xlink="http://www.w3.org/1999/xlink">
    <!-- Generator: Sketch 3.6.1 (26313) - http://www.bohemiancoding.com/sketch -->
    <title></title>
    <desc>Created with Sketch.</desc>
    <defs></defs>
    <g id="Page-1" stroke="none" stroke-width="1" fill="none" fill-rule="evenodd">
        <g id="Upload-panels-a-Design" transform="translate(-129.000000, -614.000000)" fill="#D0011B">
            <path d="M129,626 L135.884766,614.134766 L142.740234,626 L129,626 Z M136.5,624.125 L136.5,622.865234 L135.240234,622.865234 L135.240234,624.125 L136.5,624.125 Z M136.5,621.634766 L136.5,619.115234 L135.240234,619.115234 L135.240234,621.634766 L136.5,621.634766 Z" id=""></path>
        </g>
    </g>
</svg>